[
  {
    "Year": 2000,
    "Make": "Hyundai",
    "Model": "Santro",
    "Badge": "TB",
    "EngineSize": "1.2",
    "Transmission": "Manual",
    "DateCreated": "2015-06-19T10:03:06",
    "DateModified": "2015-06-19T10:03:06",
    "DateArchived": "0001-01-01T00:00:00",
    "Dealer": {
      "Name": "Belconnen Hyundai",
      "Email": "hyundai@belco.com.au",
      "Address": "5 Cohen Street Belconnen"
    }
  },
  {
    "Year": 2015,
    "Make": "Honda",
    "Model": "Civic",
    "Badge": "Sportz",
    "EngineSize": "1.6",
    "Transmission": "Auto",
    "DateCreated": "2017-07-20T10:03:06",
    "DateModified": "2017-07-20T10:03:06",
    "DateArchived": "0001-01-01T00:00:00",
    "Dealer": {
      "Name": "Glenn Honda",
      "Email": "honda@glenn.com.au",
      "Address": "5 Cohen Street Woden"
    }
  },
  {
    "Year": 2010,
    "Make": "Toyota",
    "Model": "Corolla",
    "Badge": "Sedan",
    "EngineSize": "1.4",
    "Transmission": "Auto",
    "DateCreated": "2017-07-21T10:03:06",
    "DateModified": "2017-07-21T10:03:06",
    "DateArchived": "2017-07-21T10:03:06",
    "Dealer": {
      "Name": "Glenn Honda",
      "Email": "honda@glenn.com.au",
      "Address": "5 Willey Street Woden"
    }
  },
  {
    "Year": 2017,
    "Make": "Hyundai",
    "Model": "SantaFE",
    "Badge": "4WD",
    "EngineSize": "2.0",
    "Transmission": "Manual",
    "DateCreated": "2017-07-21T08:29:11.5179457+10:00",
    "DateModified": "2017-07-21T08:29:11.5179457+10:00",
    "DateArchived": "2017-07-19T10:03:06",
    "Dealer": {
      "Name": "T Hyundai",
      "Email": "hyundai@t.com.au",
      "Address": "5 George Street"
    }
  },
  {
    "Year": 2017,
    "Make": "Subaru",
    "Model": "Forester",
    "Badge": "4WD",
    "EngineSize": "2.0",
    "Transmission": "Manual",
    "DateCreated": "2017-07-21T08:29:11.5179457+10:00",
    "DateModified": "2017-07-21T08:29:11.5179457+10:00",
    "DateArchived": "2017-07-10T10:03:06",
    "Dealer": {
      "Name": "T-Subaru",
      "Email": "subaru@t.com.au",
      "Address": "5 Kent Street"
    }
  }
]